…
# Define reprex data ------------------------------------------------------

sbp_rpt <- 
  tibble::tibble( 
    id = paste0("100", seq(1, 1000, 1)),
    sbp_03_month = sample(90:180, size = 1000, replace = TRUE),
    sbp_06_month = sample(90:180, size = 1000, replace = TRUE),
    sbp_12_month = sample(90:180, size = 1000, replace = TRUE),
    sbp_18_month = sample(90:180, size = 1000, replace = TRUE)
  )

sbp_rpt
#> # A tibble: 1,000 × 5
#>    id    sbp_03_month sbp_06_month sbp_12_month sbp_18_month
#>    <chr>        <int>        <int>        <int>        <int>
#>  1 1001           170          115          102          133
#>  2 1002           180          105          168           99
#>  3 1003            91          132          110          132
#>  4 1004           166          137          163          104
#>  5 1005           128          119           97          167
#>  6 1006           128          131           92          177
#>  7 1007            95          169          116          105
#>  8 1008            91          152          165          144
#>  9 1009           179          142          170          130
#> 10 10010          116          146          145          108
#> # … with 990 more rows
```
…
``` r
sbp_var <- sbp_rpt %>%
  dplyr::rowwise() %>%
  dplyr::mutate(
    # Mean
    sbp_mean = mean(dplyr::c_across(tidyselect::starts_with("sbp"))),
    # SD
    sbp_sd = sd(dplyr::c_across(tidyselect::starts_with("sbp")))
  ) %>%
  dplyr::ungroup() %>%
  # CV
  dplyr::mutate(sbp_cv = (sbp_sd / sbp_mean) * 100)
  
sbp_var
#> # A tibble: 1,000 × 8
#>    id    sbp_03_month sbp_06_month sbp_12_month sbp_18_month sbp_mean sbp_sd sbp_cv
#>    <chr>        <int>        <int>        <int>        <int>    <dbl>  <dbl>  <dbl>
#>  1 1001           170          115          102          133     130    25.6   19.7
#>  2 1002           180          105          168           99     138    36.3   26.3
#>  3 1003            91          132          110          132     116.   17.1   14.7
#>  4 1004           166          137          163          104     142.   24.9   17.5
#>  5 1005           128          119           97          167     128.   25.3   19.8
#>  6 1006           128          131           92          177     132    30.2   22.9
#>  7 1007            95          169          116          105     121.   28.6   23.5
#>  8 1008            91          152          165          144     138    28.2   20.4
#>  9 1009           179          142          170          130     155.   20.0   12.9
#> 10 10010          116          146          145          108     129.   17.0   13.2
#> # … with 990 more rows
```
…
